info face="Walkway UltraBold" size=130 bold=0 italic=0 charset="" unicode=0 stretchH=100 smooth=1 aa=1 padding=1,1,1,1 spacing=0,0
common lineHeight=140 base=114 scaleW=512 scaleH=512 pages=1 packed=0
page id=0 file="BlockFrenzy.png"
chars count=29
char id=32   x=0     y=0     width=0     height=0     xoffset=0     yoffset=114    xadvance=48     page=0  chnl=0 
char id=105   x=0     y=0     width=13     height=94     xoffset=3     yoffset=23    xadvance=20     page=0  chnl=0 
char id=100   x=13     y=0     width=71     height=93     xoffset=1     yoffset=24    xadvance=75     page=0  chnl=0 
char id=67   x=84     y=0     width=91     height=93     xoffset=3     yoffset=24    xadvance=95     page=0  chnl=0 
char id=33   x=175     y=0     width=13     height=93     xoffset=7     yoffset=24    xadvance=27     page=0  chnl=0 
char id=83   x=188     y=0     width=82     height=93     xoffset=1     yoffset=24    xadvance=85     page=0  chnl=0 
char id=104   x=270     y=0     width=63     height=93     xoffset=3     yoffset=24    xadvance=70     page=0  chnl=0 
char id=72   x=333     y=0     width=83     height=93     xoffset=3     yoffset=24    xadvance=90     page=0  chnl=0 
char id=79   x=0     y=94     width=99     height=93     xoffset=0     yoffset=24    xadvance=100     page=0  chnl=0 
char id=71   x=99     y=94     width=98     height=93     xoffset=1     yoffset=24    xadvance=101     page=0  chnl=0 
char id=70   x=197     y=94     width=70     height=93     xoffset=3     yoffset=24    xadvance=68     page=0  chnl=0 
char id=107   x=267     y=94     width=72     height=93     xoffset=3     yoffset=24    xadvance=71     page=0  chnl=0 
char id=108   x=339     y=94     width=13     height=93     xoffset=3     yoffset=24    xadvance=20     page=0  chnl=0 
char id=66   x=352     y=94     width=82     height=93     xoffset=2     yoffset=24    xadvance=85     page=0  chnl=0 
char id=103   x=434     y=94     width=70     height=91     xoffset=1     yoffset=48    xadvance=73     page=0  chnl=0 
char id=121   x=0     y=187     width=66     height=91     xoffset=1     yoffset=48    xadvance=70     page=0  chnl=0 
char id=51   x=66     y=187     width=75     height=90     xoffset=1     yoffset=27    xadvance=78     page=0  chnl=0 
char id=50   x=141     y=187     width=72     height=90     xoffset=3     yoffset=27    xadvance=78     page=0  chnl=0 
char id=49   x=213     y=187     width=42     height=89     xoffset=5     yoffset=28    xadvance=56     page=0  chnl=0 
char id=116   x=255     y=187     width=39     height=85     xoffset=-1     yoffset=32    xadvance=36     page=0  chnl=0 
char id=115   x=294     y=187     width=61     height=70     xoffset=2     yoffset=47    xadvance=65     page=0  chnl=0 
char id=118   x=355     y=187     width=77     height=69     xoffset=-4     yoffset=48    xadvance=63     page=0  chnl=0 
char id=109   x=0     y=278     width=101     height=69     xoffset=3     yoffset=48    xadvance=108     page=0  chnl=0 
char id=97   x=101     y=278     width=71     height=69     xoffset=1     yoffset=48    xadvance=75     page=0  chnl=0 
char id=122   x=172     y=278     width=64     height=69     xoffset=0     yoffset=48    xadvance=63     page=0  chnl=0 
char id=110   x=236     y=278     width=63     height=69     xoffset=3     yoffset=48    xadvance=70     page=0  chnl=0 
char id=101   x=299     y=278     width=71     height=69     xoffset=-1     yoffset=48    xadvance=70     page=0  chnl=0 
char id=114   x=370     y=278     width=40     height=69     xoffset=3     yoffset=48    xadvance=43     page=0  chnl=0 
char id=99   x=410     y=278     width=69     height=69     xoffset=0     yoffset=48    xadvance=70     page=0  chnl=0 
char id=111   x=0     y=347     width=73     height=69     xoffset=0     yoffset=48    xadvance=73     page=0  chnl=0 
kernings count=-1
